
{
  "token": {
    "Server":"服务器",
    "Projects":"项目",
    "Login-DisableCall":"登录-号码禁呼禁透",
    "Language" : "语言",
    "English":"英语",
    "Chinese": "中文",
    "DC Status:(refresh per 5 second)":"号码状态信息：(每5秒自动刷新)",
    "RE Status:(refresh per 5 second)":"录音状态信息：(每5秒自动刷新)",
    "START TIME:":"启动时间：",
    "TOTAL PROCESS:":"处理总数：",
    "CUR PENDING CNT:":"当前待处理数量：",
    "MAX PROCESS TIME:":"最大处理时间：",
    "AVG PROCESS TIME:": "平均处理时间：",
    "DC Server Info:":"号码系统信息：",
    "RE Server Info:":"录音系统信息：",
    "SERVER IP:":"服务器IP地址：",
    "SERVER PORT:":"服务器端口：",
    "SERVER VERSION:":"服务器版本：",
    "SERVER ID:":"服务器ID：",
    "PRODUCT ID:":"产品类型：",
    "SYSTEM UPTIME:":"系统运行时间：",
    "PROCESS UPTIME:":"服务运行时间：",
    "SYSTEM MEMORY:": "系统内存大小",
    "MEMORY UTILIZATION:":"内存占用率：",
    "CPU USAGE TATE:":"CPU使用率：",
    "NET GET FLOW:":"网络接收流量：",
    "NET SEND FLOW:":"网络发送流量：",
    "RECORD DISK USAGE TATE:":"录音磁盘占用率：",
    "RECORD SPACE USAGE:":"录音文件占用空间：",
    "LISTEN IP:":"服务器IP地址：",
    "LISTEN PORT:":"服务器端口：",
    "MAX SESSIONS:":"最大录音会话数：",
    "SESSIONS COUNT:":"当前录音会话数：",
    "PROCESSED TOTAL:":"录音总数：",
    "PROCESSED FAILED:":"录音失败数：",
    "PRODUCT NAME:":"产品名称：",

    "AUDIO TIME:":"AUDIO TIME：",
    "MIX TIME:":"MIX TIME：",
    "WRITE TIME:":"WRITE TIME：",
    "RECORD TIME:":"RECORD TIME：",
    "FRACTION LOST:":"FRACTION LOST：",
    "CUMULATIVE LOST:":"CUMULATIVE LOST：",
    "EXTENDED MAX SEQUENCE NUMBER:":"EXTENDED MAX SEQUENCE NUMBER：",
    "JITTER:":"JITTER：",
    "CURRENT BUFFER SIZE MS:":"CURRENT BUFFER SIZE MS：",
    "PREFERRED BUFFER SIZE MS:":"PREFERRED BUFFER SIZE MS：",
    "JITTER PEAKS FOUND:":"JITTER PEAKS FOUND：",
    "PACKET LOSS RATE:":"PACKET LOSS RATE：",
    "PACKET DISCARD RATE:":"PACKET DISCARD RATE：",
    "EXPAND RATE:":"EXPAND RATE：",
    "PREEMPTIVE RATE:":"PREEMPTIVE RATE：",
    "ACCELERATE RATE:":"ACCELERATE RATE：",
    "CLOCKDRIFT PPM:":"CLOCKDRIFT PPM：",
    "ADDED ZERO SAMPLES:":"ADDED ZERO SAMPLES：",

    "Setting" : "设 置",
    "Save" : "保 存"
  },
  "regex": [
  ]
}
