{
  "web_host": "localhost",
  "web_port": "6100",
  "appServerPath": "/opt/dinstar/record/app_server.js",
  "webLogFile": "/var/log/drecorder/webServer.log",
  "pidFilePath": "/var/run/record_run_dir/record.pid",
  "cloudServerHost": "server02.dmcld.com",
  "cloudServerPort": "80",
  "cloudServerPath": "/webapi.action?action=UpdateStatusInfo",

  "product_id": "61",
  "product_name": "DRSERVER",
  "server_id": "161",
  "status_path": "/opt/dinstar/proc",
  "max_sessions": 400,
  "recording_path": "/opt/recordings",
  "backup_path": "/opt/recordings_backup",
  "server_port": "2999",
  "server_ip": "localhost",
  "recorder_log_path": "/var/log/drecorder/drecorder.log",
  "recorder_log_level": 4,
  "logger_factory": {
    "type": "winston",
    "settings": {
      "transports": [
        ["winston.transports.Console", {"level":"notice", "colorize":true, "timestamp":true}],
        ["winston.transports.File", {"level":"info", "filename":"/var/log/drecorder/app_server.log", "maxsize":10000000, "maxFiles":10}]
      ]
    }
  }
}

